--INSERT INTO "POINT_ROULETTE_CONN_LOG"( "IDX", "ROU_ID", "CUST_ID", "GA_ID", "CTN", "SDATE", "IPADDR", "REGDATE")
--VALUES ( nextval("POINT_ROULLETE_CONN_LOG_IDX_seq") , '2016001003259', 'cust_id', 'GA_ID', '01085865753', '20160601', '254.254.254.1', now());


INSERT INTO "POINT_ROULETTE_CONN_LOG"(  "ROU_ID", "CUST_ID", "GA_ID", "CTN", "SDATE", "IPADDR", "REGDATE")
VALUES (  '2016001003259', 'cust_id', 'GA_ID', '01085865753', '20160601', '254.254.254.1', now());