[포인트요청 정보]
Ctn : lTaHVEjF/VCFK+tiBcwt6w==    ( 01054441324 암호화 )
Transaction_id : 01054441324_1_0
Requester_code : sam_insure_car
Point_value : 5000
Description : 삼성화재 자동차보험 보험료 확인

[요청결과 (리턴값 회신)]
Ctn : lTaHVEjF/VCFK+tiBcwt6w==
Description : 삼성화재 자동차보험 보험료 확인
Point_value : 5000
Datetime : 20170306104342
Transaction_id : 01054441324_1_0
